[gd_scene load_steps=2 format=2]

[ext_resource path="res://entity/Inventory/Inventory.tscn" type="PackedScene" id=1]

[node name="World" type="Node2D"]

[node name="Inventory" parent="." instance=ExtResource( 1 )]
